t,a,b,c
0,9,4,1
1,8,9,16
2,7,8,17
3,6,7,18
4,5,9,15
5,5,6,19
6,4,10,11
7,3,11,12
8,2,6,4
9,2,12,13
10,14,15,17
11,13,16,18
12,12,17,19
13,11,15,18
14,10,16,19
15,1,7,3
16,1,14,13
17,0,8,2
18,0,3,5
19,0,10,14
